<?xml version="1.0" encoding="UTF-8"?>
<session version="1.0">
<refactoring accessors="true" comment="Delete element from project &apos;Demo&apos;&#x0D;&#x0A;- Original project: &apos;Demo&apos;&#x0D;&#x0A;- Original element: &apos;com.ts.HelloController.java&apos;" description="Delete element" element1="/src\/main\/java&lt;com.ts{HelloController.java" elements="1" flags="589830" id="org.eclipse.jdt.ui.delete" resources="0" stamp="1713852666008" subPackages="false" version="1.0"/>
</session>