127.0.0.1 - - [07/Apr/2024:23:56:09 +0530] "GET / HTTP/1.1" 404 752
127.0.0.1 - - [07/Apr/2024:23:56:22 +0530] "GET / HTTP/1.1" 404 752
0:0:0:0:0:0:0:1 - - [07/Apr/2024:23:56:22 +0530] "GET /StudentWeb/WEB-INF/login.html HTTP/1.1" 404 683
0:0:0:0:0:0:0:1 - - [07/Apr/2024:23:56:46 +0530] "GET /StudentWeb/WEB-INF/Registration.html HTTP/1.1" 404 683
