127.0.0.1 - - [16/Apr/2024:22:29:06 +0530] "GET / HTTP/1.1" 404 752
0:0:0:0:0:0:0:1 - - [16/Apr/2024:22:29:06 +0530] "GET /StudentWeb/login.html HTTP/1.1" 200 555
0:0:0:0:0:0:0:1 - - [16/Apr/2024:22:29:18 +0530] "POST /StudentWeb/LoginServlet HTTP/1.1" 200 268
0:0:0:0:0:0:0:1 - - [16/Apr/2024:22:29:37 +0530] "POST /StudentWeb/LoginServlet HTTP/1.1" 200 351
0:0:0:0:0:0:0:1 - - [16/Apr/2024:22:29:40 +0530] "GET /StudentWeb/GetStuById.html HTTP/1.1" 404 782
0:0:0:0:0:0:0:1 - - [16/Apr/2024:22:30:07 +0530] "GET /StudentWeb/ HTTP/1.1" 404 767
127.0.0.1 - - [16/Apr/2024:22:38:37 +0530] "GET / HTTP/1.1" 404 752
0:0:0:0:0:0:0:1 - - [16/Apr/2024:22:38:50 +0530] "POST /StudentWeb/LoginServlet HTTP/1.1" 200 268
0:0:0:0:0:0:0:1 - - [16/Apr/2024:22:39:02 +0530] "POST /StudentWeb/LoginServlet HTTP/1.1" 200 351
0:0:0:0:0:0:0:1 - - [16/Apr/2024:22:39:04 +0530] "GET /StudentWeb/GetStuById.html HTTP/1.1" 404 782
127.0.0.1 - - [16/Apr/2024:22:41:49 +0530] "GET / HTTP/1.1" 404 752
0:0:0:0:0:0:0:1 - - [16/Apr/2024:22:41:58 +0530] "POST /StudentWeb/LoginServlet HTTP/1.1" 200 351
0:0:0:0:0:0:0:1 - - [16/Apr/2024:22:41:59 +0530] "GET /StudentWeb/GetStuById.html HTTP/1.1" 404 782
0:0:0:0:0:0:0:1 - - [16/Apr/2024:22:46:13 +0530] "POST /StudentWeb/LoginServlet HTTP/1.1" 200 351
0:0:0:0:0:0:0:1 - - [16/Apr/2024:22:46:14 +0530] "GET /StudentWeb/GetStuById.html HTTP/1.1" 200 408
0:0:0:0:0:0:0:1 - - [16/Apr/2024:22:46:18 +0530] "POST /StudentWeb/GetStuById HTTP/1.1" 500 1180
127.0.0.1 - - [16/Apr/2024:22:51:17 +0530] "GET / HTTP/1.1" 404 752
0:0:0:0:0:0:0:1 - - [16/Apr/2024:22:51:29 +0530] "POST /StudentWeb/LoginServlet HTTP/1.1" 200 351
0:0:0:0:0:0:0:1 - - [16/Apr/2024:22:51:30 +0530] "GET /StudentWeb/GetStuById.html HTTP/1.1" 304 -
0:0:0:0:0:0:0:1 - - [16/Apr/2024:22:51:32 +0530] "POST /StudentWeb/GetStuById HTTP/1.1" 500 1246
127.0.0.1 - - [16/Apr/2024:23:08:31 +0530] "GET / HTTP/1.1" 404 752
0:0:0:0:0:0:0:1 - - [16/Apr/2024:23:08:40 +0530] "POST /StudentWeb/LoginServlet HTTP/1.1" 200 351
0:0:0:0:0:0:0:1 - - [16/Apr/2024:23:08:41 +0530] "GET /StudentWeb/GetStuById.html HTTP/1.1" 304 -
0:0:0:0:0:0:0:1 - - [16/Apr/2024:23:08:44 +0530] "POST /StudentWeb/GetStuById HTTP/1.1" 500 1246
