<?xml version="1.0" encoding="UTF-8"?>
<session version="1.0">
<refactoring comment="Delete resource &apos;Fsd_62Web_App&apos;" deleteContents="true" description="Delete resource &apos;Fsd_62Web_App&apos;" element1="/Fsd_62Web_App" flags="7" id="org.eclipse.ltk.core.refactoring.delete.resources" resources="1" stamp="1712207068247"/>
</session>