INDEX VERSION 1.130+D:\fsd62\fsd62\Module4\SpringBoot\StudCourWorkspace\.metadata\.plugins\org.eclipse.jdt.core
3355708150.index
2291033741.index
3857531942.index
3707833080.index
2168704705.index
512953704.index
1036203347.index
2722796120.index
1737575566.index
913327475.index
3565963143.index
3618016905.index
531704907.index
585472926.index
3158175737.index
2758576337.index
1243217349.index
3767518192.index
2358882468.index
913840620.index
3479732463.index
1774337791.index
374596554.index
1396694663.index
803333713.index
204489597.index
401767567.index
3805199801.index
762638406.index
2442366928.index
1509315571.index
3312165055.index
4184556947.index
2136184665.index
187973263.index
2653330038.index
665229421.index
3392555286.index
300340355.index
2321294872.index
3566089501.index
4271554849.index
2256529200.index
275135166.index
463742570.index
2640395066.index
2391793478.index
1474168828.index
3852244655.index
743109110.index
3545596295.index
3249659615.index
412031189.index
297448155.index
2107691214.index
1311777431.index
3385675837.index
2874123534.index
70713668.index
1464245383.index
857927949.index
4110764446.index
490905580.index
1114496066.index
2383424372.index
4078257944.index
1381569277.index
3163051262.index
736569656.index
1546719000.index
2392526766.index
4278764599.index
1227306570.index
3488697340.index
615343697.index
2061119976.index
2006079928.index
3418206662.index
3763953407.index
4223518232.index
642367821.index
579018657.index
4156134815.index
1969049255.index
3043206317.index
1552878334.index
2221504672.index
2782998763.index
2194716159.index
3772163959.index
60423043.index
1237464127.index
307019978.index
2046975315.index
274975006.index
2110196564.index
4199092476.index
157046368.index
2071462652.index
3856433349.index
920088228.index
1396923773.index
234704369.index
2389657827.index
